{
  "page": 1,
  "total_results": 10000,
  "total_pages": 500,
  "results": [
    {
      "popularity": 365.75,
      "vote_count": 2585,
      "video": false,
      "poster_path": "/l3JgqdqILmpSq5VFZA69mP6bmME.jpg",
      "id": 419704,
      "adult": false,
      "backdrop_path": "/5BwqwxMEjeFtdknRV792Svo0K1v.jpg",
      "original_language": "en",
      "original_title": "Ad Astra",
      "genre_ids": [12, 18, 9648, 878, 53],
      "title": "Yıldızlara Doğru",
      "vote_average": 6,
      "overview": "Askeri mühendis olan Roy McBride'ın babası Clifford, 20 yıl önce uzayda insan dışı bir varlığın emaresini aramak için çıktığı görevde kaybolmuştur. Roy, babasının hala hayatta olduğuna dair bir kanıt elde eder ve bu kanıtın sırf Roy’un babası için değil, tüm kainat için tehlikeli olabileceğini görür. Bunun üzerine Roy, babasını bulmak için galakside tek yönlü bir yolculuğa çıkar.",
      "release_date": "2019-09-17"
    },
    {
      "popularity": 328.342,
      "vote_count": 680,
      "video": false,
      "poster_path": "/sZnWWiY1kDZQjx1o6w42lvRvdyP.jpg",
      "id": 475303,
      "adult": false,
      "backdrop_path": "/6fkqwqLEcDZOEAnBBfKAniwNxtx.jpg",
      "original_language": "en",
      "original_title": "A Rainy Day in New York",
      "genre_ids": [35, 10749],
      "title": "New York'ta Yağmurlu Bir Gün",
      "vote_average": 6.7,
      "overview": "Üniversiteli âşıklar Gatsby (Timothée Chalamet) ve Ashleigh (Elle Fanning) New York’ta baş başa geçirecekleri romantik ve güneşli bir hafta sonu planlar. Ancak şehre ayak basmalarıyla birlikte güzel hava yerini sağanak yağışa bırakırken, kahramanlarımızın yolları bu devasa ve karmaşık şehirde ayrılır. Birbirinden tuhaf karşılaşmalar ve maceralar yaşayan Gatsby ve Ashleigh, bir yandan da yeniden yan yana gelebilmenin yollarını aramaktadır.",
      "release_date": "2019-07-26"
    },
    {
      "popularity": 252.366,
      "vote_count": 0,
      "video": false,
      "poster_path": "/46UQgss4eeiLt1XE2GpHpPkzjIi.jpg",
      "id": 625985,
      "adult": false,
      "backdrop_path": "/j4B8G5yKRnTO655uvpQBXt4Ok08.jpg",
      "original_language": "ja",
      "original_title": "仮面ライダージオウNEXT TIME：ゲイツ、マジェスティ",
      "genre_ids": [28, 12, 878],
      "title": "仮面ライダージオウNEXT TIME：ゲイツ、マジェスティ",
      "vote_average": 0,
      "overview": "",
      "release_date": "2020-04-22"
    },
    {
      "popularity": 237.255,
      "id": 454626,
      "video": false,
      "vote_count": 1081,
      "vote_average": 7.3,
      "title": "Kirpi Sonic",
      "release_date": "2020-02-12",
      "original_language": "en",
      "original_title": "Sonic the Hedgehog",
      "genre_ids": [28, 878, 35, 10751],
      "backdrop_path": "/stmYfCUGd8Iy6kAMBr6AmWqx8Bq.jpg",
      "adult": false,
      "overview": "Sonic the Hedgehog, peşine düşen yetkililerden kurtulup, şeytani doktorun elinde bulunan yüzükleri geri almaya çalışan Sonic'in hikayesini konu ediyor. Hükümet, insan biçiminde bir kirpi olan Sonic’i yakalamak için peşine düşer. Devlet görevlileri her yerde Sonic’i aramaya başlar. Sonic ise bu sırada şeytani doktor Eggman’ın ele geçirdiği yüzükleri geri almaya çalışmaktadır. Küçük bir kasaba olan Green Hills’in şerifi Tom Wachowski, Sonic’in peşine düşen hükümet yetkililerinden kaçmayı başarıp, doktordan yüzükleri geri alabilmesi için yardım etmeye karar verir. Ancak bu sandığı kadar kolay olmayacaktır.",
      "poster_path": "/4iOIdI4AYGPFCpsWNLRqtPj9KPM.jpg"
    },
    {
      "popularity": 209.734,
      "vote_count": 134,
      "video": false,
      "poster_path": "/8WUVHemHFH2ZIP6NWkwlHWsyrEL.jpg",
      "id": 338762,
      "adult": false,
      "backdrop_path": "/ocUrMYbdjknu2TwzMHKT9PBBQRw.jpg",
      "original_language": "en",
      "original_title": "Bloodshot",
      "genre_ids": [28, 18, 14, 878],
      "title": "Bloodshot: Durdurulamaz Güç",
      "vote_average": 5.8,
      "overview": "Denizci olan Ray Garrison isimli bir adam ve karısı öldürülür. Bunun ardından bir grup varlıklarını gizleyen bilim adamı Ray Garrison'ı nanoteknoloji yardımıyla hayata geri döndürür. Ray bundan sonra kendi gibi olan süper askerlerle çalışacaktır. Bu sırada ise geçmişiyle ilgili hiçbir şey hatırlamıyordur. Ama hafızası geri gelmeye ve karısı ile kendisini kimin öldürdüğünü hatırlamaya başladığında her şeyi yok etmek için mücadele vermeye başlayacaktır. Garrison, yavaş yavaş bu cinayetin ardındaki komployu ortaya çıkaracaktır.",
      "release_date": "2020-02-20"
    },
    {
      "popularity": 195.942,
      "vote_count": 2304,
      "video": false,
      "poster_path": "/w8AyCg3d2eRphfJSZAuNEvhiiuT.jpg",
      "id": 512200,
      "adult": false,
      "backdrop_path": "/hreiLoPysWG79TsyQgMzFKaOTF5.jpg",
      "original_language": "en",
      "original_title": "Jumanji: The Next Level",
      "genre_ids": [28, 12, 35, 14],
      "title": "Jumanji: Yeni Seviye",
      "vote_average": 6.8,
      "overview": "Jumanji: Yeni Seviye, arkadaşlarını kurtarmak için kendilerini yeniden oyunun içinde bulan gençlerin maceralarını konu ediyor. Jumanji maceralarından sağ olarak kurtulmayı başaran dört genç, üniversitenin tatile girmesi ile birlikte New Hampshire Brantford’daki evlerine geri döner. Hayatlarına yeni bir yön vermeye çalışan gençler, arkadaşlarını kurtarabilmek için kendilerini yeniden Jumanji dünyasının içinde bulur. Spencer oyuna yeniden girmek zorunda kaldığında, Martha, Fridge ve Bethany arkadaşlarını kurtarmak için Jumanji'ye geri döner ve hiçbir şeyin bekledikleri gibi olmadığını fark eder. Jumanji artık değişmiştir ve sadece bir ormandan ibaret değildir. Ekip, daha tehlikeli bir hal alan oyunda karşılarına çıkan korkunç engelleri aşıp, oyundan kaçmanın yolunu bulabilecek midir?",
      "release_date": "2019-12-04"
    },
    {
      "popularity": 190.677,
      "id": 530915,
      "video": false,
      "vote_count": 3324,
      "vote_average": 8,
      "title": "1917",
      "release_date": "2019-12-25",
      "original_language": "en",
      "original_title": "1917",
      "genre_ids": [10752, 18],
      "backdrop_path": "/cqa3sa4c4jevgnEJwq3CMF8UfTG.jpg",
      "adult": false,
      "overview": "Film, I. Dünya Savaşı sırasında bir tuzağa doğru gitmekte olan bir tabur askerin hayatını kurtaracak mesajı, zamanla yarışarak iletmeye çalışan iki askerin hikâyesini anlatıyor.",
      "poster_path": "/cTzIxbvk3zcvN2X4PLaEdnRkPvh.jpg"
    }
  ]
}
